module lamoda-test

go 1.21

require (
	github.com/go-chi/chi v1.5.5
	github.com/stretchr/testify v1.8.4
)

require (
	github.com/cockroachdb/apd v1.1.0 // indirect
	github.com/davecgh/go-spew v1.1.1 // indirect
	github.com/gofrs/uuid v4.4.0+incompatible // indirect
	github.com/jackc/fake v0.0.0-20150926172116-812a484cc733 // indirect
	github.com/lib/pq v1.10.9 // indirect
	github.com/pkg/errors v0.9.1 // indirect
	github.com/pmezard/go-difflib v1.0.0 // indirect
	github.com/shopspring/decimal v1.3.1 // indirect
	github.com/stretchr/objx v0.5.0 // indirect
	gopkg.in/yaml.v3 v3.0.1 // indirect
)

require (
	github.com/jackc/pgx v3.6.2+incompatible
	golang.org/x/crypto v0.18.0 // indirect
	golang.org/x/text v0.14.0 // indirect
)
